<svg xmlns="http://www.w3.org/2000/svg" width="30mm" height="8.778mm" viewBox="0 0 85.039 24.882">
  <title>BonbonsFichier 3</title>
  <path d="M78.612,0a.412.412,0,0,0-.286.114L73.142,5.3l-6.149,6.149V2.011A2.018,2.018,0,0,0,64.973,0H20.041A2.016,2.016,0,0,0,18.03,2.011v9.42L11.9,5.3,6.713.114A.41.41,0,0,0,6.427,0C2.821,0,0,5.462,0,12.445S2.821,24.882,6.427,24.882a.41.41,0,0,0,.286-.114l5.192-5.193,1.211-1.21h0l4.914-4.914v9.42a2.015,2.015,0,0,0,2.011,2.011H64.973a2.017,2.017,0,0,0,2.02-2.011V13.435l4.922,4.922,1.219,1.218,5.192,5.193a.412.412,0,0,0,.286.114c3.606,0,6.427-5.462,6.427-12.437S82.218,0,78.612,0ZM6.263,24.065C3.3,23.876.818,18.627.818,12.445S3.3,1.006,6.263.818l4.7,4.7h0a7.243,7.243,0,0,0,.008,13.836ZM13.1,17.229h0a4.792,4.792,0,0,1-.008-9.584h0l4.792,4.8ZM18.848,2.011A1.194,1.194,0,0,1,20.041.818H64.973a1.2,1.2,0,0,1,1.2,1.193V19.575H18.848ZM64.973,24.065H20.041a1.2,1.2,0,0,1-1.193-1.194v-.842H66.175v.842A1.2,1.2,0,0,1,64.973,24.065Zm2.183-11.62,4.792-4.8a4.792,4.792,0,0,1-.008,9.584Zm11.62,11.62-4.71-4.71a7.246,7.246,0,0,0,.008-13.836l4.7-4.7c2.968.188,5.446,5.437,5.446,11.627S81.744,23.876,78.776,24.065Z" fill="#1d1d1b"/>
</svg>
